…
Here are predictions from a simple model from <https://covidactnow.org/>
as of March 24:

``` r
df = read_csv("covid_act_now.csv", col_types = cols(
  date = col_date(),
  not_flattened = col_integer(),
  flattened = col_integer(),
  beds = col_integer()
))

df
```

    ## # A tibble: 29 x 4
    ##    date       not_flattened flattened  beds
    ##    <date>             <int>     <int> <int>
    ##  1 2020-03-07            76        76 21010
    ##  2 2020-03-11           220       220 21010
    ##  3 2020-03-15           732       732 21010
    ##  4 2020-03-19          5360      5361 22060
    ##  5 2020-03-23         20769     20775 23163
    ##  6 2020-03-27         48888     34639 24322
    ##  7 2020-03-31        111019     56312 25538
    ##  8 2020-04-04        231190     87732 26814
    ##  9 2020-04-08        390700    127428 28155
    ## 10 2020-04-12        401125    165559 29563
    ## # ... with 19 more rows

And a long-format version for hospitalizations:

``` r
hosp = df %>%
  pivot_longer(c(-date, -beds), names_to = "model", values_to = "hospitalized") %>%
  mutate(
    flattened = model == "flattened",
    model = fct_recode(model, `Not flattened` = "not_flattened", Flattened = "flattened")
  )

hosp
```

    ## # A tibble: 58 x 5
    ##    date        beds model         hospitalized flattened
    ##    <date>     <int> <fct>                <int> <lgl>    
    ##  1 2020-03-07 21010 Not flattened           76 FALSE    
    ##  2 2020-03-07 21010 Flattened               76 TRUE     
    ##  3 2020-03-11 21010 Not flattened          220 FALSE    
    ##  4 2020-03-11 21010 Flattened              220 TRUE     
    ##  5 2020-03-15 21010 Not flattened          732 FALSE    
    ##  6 2020-03-15 21010 Flattened              732 TRUE     
    ##  7 2020-03-19 22060 Not flattened         5360 FALSE    
    ##  8 2020-03-19 22060 Flattened             5361 TRUE     
    ##  9 2020-03-23 23163 Not flattened        20769 FALSE    
    ## 10 2020-03-23 23163 Flattened            20775 TRUE     
    ## # ... with 48 more rows
…
hosp_dots
```

    ## # A tibble: 276 x 9
    ##    date        beds model hospitalized flattened hospitalized_do~ dot_number
    ##    <date>     <int> <fct>        <int> <lgl>                <dbl>      <int>
    ##  1 2020-03-07 21010 Not ~           76 FALSE                    1          1
    ##  2 2020-03-07 21010 Flat~           76 TRUE                     1          1
    ##  3 2020-03-11 21010 Not ~          220 FALSE                    1          1
    ##  4 2020-03-11 21010 Flat~          220 TRUE                     1          1
    ##  5 2020-03-15 21010 Not ~          732 FALSE                    1          1
    ##  6 2020-03-15 21010 Flat~          732 TRUE                     1          1
    ##  7 2020-03-19 22060 Not ~         5360 FALSE                    1          1
    ##  8 2020-03-19 22060 Flat~         5361 TRUE                     1          1
    ##  9 2020-03-23 23163 Not ~        20769 FALSE                    3          1
    ## 10 2020-03-23 23163 Not ~        20769 FALSE                    3          2
    ## # ... with 266 more rows, and 2 more variables: dot_people <dbl>,
    ## #   has_a_bed <lgl>
…
